{
  "entries": {
    "tap": {
      "shivammathur/php": {
        "revision": "8c6d365a77f1a0fe0400912b906bb1d08fed9392"
      },
      "homebrew/cask-fonts": {
        "revision": "af21856f6d11cbf0833adda6d62d742f76154e36"
      }
    },
    "brew": {
      "pgcli": {
        "version": "3.5.0_1",
        "bottle": {
          "rebuild": 1,
          "root_url": "https://ghcr.io/v2/homebrew/core",
          "files": {
            "arm64_ventura": {
              "cellar": ":any_skip_relocation",
              "url": "https://ghcr.io/v2/homebrew/core/pgcli/blobs/sha256:efa8d8763830fe16afe3e5f3fd01e7f1f60f697d220bede6191507a28739b7d4",
              "sha256": "efa8d8763830fe16afe3e5f3fd01e7f1f60f697d220bede6191507a28739b7d4"
            },
            "arm64_monterey": {
              "cellar": ":any_skip_relocation",
              "url": "https://ghcr.io/v2/homebrew/core/pgcli/blobs/sha256:bcabf4b5831c3e5eb8123e0d0ee0168a1387bd1074353fdb0747373cb44efd02",
              "sha256": "bcabf4b5831c3e5eb8123e0d0ee0168a1387bd1074353fdb0747373cb44efd02"
            },
            "arm64_big_sur": {
              "cellar": ":any_skip_relocation",
              "url": "https://ghcr.io/v2/homebrew/core/pgcli/blobs/sha256:ad81e4f07888f75edbb97b23914e82a74ef7aaa203da35387b8b2d0159c3646a",
              "sha256": "ad81e4f07888f75edbb97b23914e82a74ef7aaa203da35387b8b2d0159c3646a"
            },
            "ventura": {
              "cellar": ":any_skip_relocation",
              "url": "https://ghcr.io/v2/homebrew/core/pgcli/blobs/sha256:7e72b87aecaf92fbf7a497f94b54619f56f48050ef55f0c6da0eb3042cf7c767",
              "sha256": "7e72b87aecaf92fbf7a497f94b54619f56f48050ef55f0c6da0eb3042cf7c767"
            },
            "monterey": {
              "cellar": ":any_skip_relocation",
              "url": "https://ghcr.io/v2/homebrew/core/pgcli/blobs/sha256:ab785ea23264fa9ad1128a289e9ea21a9df22ce8df0902e8099b77c2f0b89c07",
              "sha256": "ab785ea23264fa9ad1128a289e9ea21a9df22ce8df0902e8099b77c2f0b89c07"
            },
            "big_sur": {
              "cellar": ":any_skip_relocation",
              "url": "https://ghcr.io/v2/homebrew/core/pgcli/blobs/sha256:acc846e235fe9d9ae8fc95ab101d414781e8260d4472e60b5a0b93f760a37d1a",
              "sha256": "acc846e235fe9d9ae8fc95ab101d414781e8260d4472e60b5a0b93f760a37d1a"
            },
            "x86_64_linux": {
              "cellar": ":any_skip_relocation",
              "url": "https://ghcr.io/v2/homebrew/core/pgcli/blobs/sha256:99eb0e89550934291484335f9527a8065b4a7d4fd531f5ad77c72040e28ded16",
              "sha256": "99eb0e89550934291484335f9527a8065b4a7d4fd531f5ad77c72040e28ded16"
            }
          }
        }
      },
      "mycli": {
        "version": "1.27.0",
        "bottle": {
          "rebuild": 0,
          "root_url": "https://ghcr.io/v2/homebrew/core",
          "files": {
            "arm64_ventura": {
              "cellar": ":any_skip_relocation",
              "url": "https://ghcr.io/v2/homebrew/core/mycli/blobs/sha256:27b5792812b88a9a3e706e8a5951a83a4db14770c6afa664d5cfcbf4369eb591",
              "sha256": "27b5792812b88a9a3e706e8a5951a83a4db14770c6afa664d5cfcbf4369eb591"
            },
            "arm64_monterey": {
              "cellar": ":any_skip_relocation",
              "url": "https://ghcr.io/v2/homebrew/core/mycli/blobs/sha256:cd5408630fea5d0f2d2804a225851f28eb5f95ba594ef38ae67bcbff752b8801",
              "sha256": "cd5408630fea5d0f2d2804a225851f28eb5f95ba594ef38ae67bcbff752b8801"
            },
            "arm64_big_sur": {
              "cellar": ":any_skip_relocation",
              "url": "https://ghcr.io/v2/homebrew/core/mycli/blobs/sha256:8f71c0f0cd6c27b10d6249e5aedacb2a6d4f696a4b4fc9b2cf9108b9aaf324aa",
              "sha256": "8f71c0f0cd6c27b10d6249e5aedacb2a6d4f696a4b4fc9b2cf9108b9aaf324aa"
            },
            "ventura": {
              "cellar": ":any_skip_relocation",
              "url": "https://ghcr.io/v2/homebrew/core/mycli/blobs/sha256:f09ad4f6423cffdafac55d6c3ff25c8f387152d16956a1c210897e97e944d0d2",
              "sha256": "f09ad4f6423cffdafac55d6c3ff25c8f387152d16956a1c210897e97e944d0d2"
            },
            "monterey": {
              "cellar": ":any_skip_relocation",
              "url": "https://ghcr.io/v2/homebrew/core/mycli/blobs/sha256:47f73a701750081458d59cdd243c68d4914c25f3e43787bd24ef2fa02a92cfd9",
              "sha256": "47f73a701750081458d59cdd243c68d4914c25f3e43787bd24ef2fa02a92cfd9"
            },
            "big_sur": {
              "cellar": ":any_skip_relocation",
              "url": "https://ghcr.io/v2/homebrew/core/mycli/blobs/sha256:0a6f4d0e2701d65a9f5c312900f2b5e4c7d00bab9e8234e41a791a0ab7203279",
              "sha256": "0a6f4d0e2701d65a9f5c312900f2b5e4c7d00bab9e8234e41a791a0ab7203279"
            },
            "x86_64_linux": {
              "cellar": ":any_skip_relocation",
              "url": "https://ghcr.io/v2/homebrew/core/mycli/blobs/sha256:52a42f6feb4b9742a0a15964267fd0a3f52db1919195b52e80e29518c69a7fae",
              "sha256": "52a42f6feb4b9742a0a15964267fd0a3f52db1919195b52e80e29518c69a7fae"
            }
          }
        }
      },
      "lazydocker": {
        "version": "0.21.1",
        "bottle": {
          "rebuild": 0,
          "root_url": "https://ghcr.io/v2/homebrew/core",
          "files": {
            "arm64_ventura": {
              "cellar": ":any_skip_relocation",
              "url": "https://ghcr.io/v2/homebrew/core/lazydocker/blobs/sha256:ea180350e59542577deda3720b3fa39049828490b2f6d1e5a33ea2cf57c77a2d",
              "sha256": "ea180350e59542577deda3720b3fa39049828490b2f6d1e5a33ea2cf57c77a2d"
            },
            "arm64_monterey": {
              "cellar": ":any_skip_relocation",
              "url": "https://ghcr.io/v2/homebrew/core/lazydocker/blobs/sha256:ea180350e59542577deda3720b3fa39049828490b2f6d1e5a33ea2cf57c77a2d",
              "sha256": "ea180350e59542577deda3720b3fa39049828490b2f6d1e5a33ea2cf57c77a2d"
            },
            "arm64_big_sur": {
              "cellar": ":any_skip_relocation",
              "url": "https://ghcr.io/v2/homebrew/core/lazydocker/blobs/sha256:ea180350e59542577deda3720b3fa39049828490b2f6d1e5a33ea2cf57c77a2d",
              "sha256": "ea180350e59542577deda3720b3fa39049828490b2f6d1e5a33ea2cf57c77a2d"
            },
            "ventura": {
              "cellar": ":any_skip_relocation",
              "url": "https://ghcr.io/v2/homebrew/core/lazydocker/blobs/sha256:07b6a0f1f3670a51e1345d67b5f080209f686435c1ac17f95a9137d35307f54a",
              "sha256": "07b6a0f1f3670a51e1345d67b5f080209f686435c1ac17f95a9137d35307f54a"
            },
            "monterey": {
              "cellar": ":any_skip_relocation",
              "url": "https://ghcr.io/v2/homebrew/core/lazydocker/blobs/sha256:07b6a0f1f3670a51e1345d67b5f080209f686435c1ac17f95a9137d35307f54a",
              "sha256": "07b6a0f1f3670a51e1345d67b5f080209f686435c1ac17f95a9137d35307f54a"
            },
            "big_sur": {
              "cellar": ":any_skip_relocation",
              "url": "https://ghcr.io/v2/homebrew/core/lazydocker/blobs/sha256:07b6a0f1f3670a51e1345d67b5f080209f686435c1ac17f95a9137d35307f54a",
              "sha256": "07b6a0f1f3670a51e1345d67b5f080209f686435c1ac17f95a9137d35307f54a"
            },
            "x86_64_linux": {
              "cellar": ":any_skip_relocation",
              "url": "https://ghcr.io/v2/homebrew/core/lazydocker/blobs/sha256:f0492e10f9b2e0ccecb5b556ed39968122f9c74b9fd0f711f228ae410e598db3",
              "sha256": "f0492e10f9b2e0ccecb5b556ed39968122f9c74b9fd0f711f228ae410e598db3"
            }
          }
        }
      },
      "ncdu": {
        "version": "2.2.2",
        "bottle": {
          "rebuild": 0,
          "root_url": "https://ghcr.io/v2/homebrew/core",
          "files": {
            "arm64_ventura": {
              "cellar": ":any",
              "url": "https://ghcr.io/v2/homebrew/core/ncdu/blobs/sha256:6e33f53d26ed222046069f2adcfb1085d8b9a554b1d95150554fb5663d70cac0",
              "sha256": "6e33f53d26ed222046069f2adcfb1085d8b9a554b1d95150554fb5663d70cac0"
            },
            "arm64_monterey": {
              "cellar": ":any",
              "url": "https://ghcr.io/v2/homebrew/core/ncdu/blobs/sha256:407ef3a5dc0b76d04b42480ab24fb708d0316043f322079621c73e67ccd3bd54",
              "sha256": "407ef3a5dc0b76d04b42480ab24fb708d0316043f322079621c73e67ccd3bd54"
            },
            "arm64_big_sur": {
              "cellar": ":any",
              "url": "https://ghcr.io/v2/homebrew/core/ncdu/blobs/sha256:3489200d1a842fb13e09c41c3b4aee3a23efa495be76769f4217b3c2ed042e2f",
              "sha256": "3489200d1a842fb13e09c41c3b4aee3a23efa495be76769f4217b3c2ed042e2f"
            },
            "ventura": {
              "cellar": ":any",
              "url": "https://ghcr.io/v2/homebrew/core/ncdu/blobs/sha256:bceb9e170df5981294a320a027299278b1f5921fb0329b1b52b841014be3856f",
              "sha256": "bceb9e170df5981294a320a027299278b1f5921fb0329b1b52b841014be3856f"
            },
            "monterey": {
              "cellar": ":any",
              "url": "https://ghcr.io/v2/homebrew/core/ncdu/blobs/sha256:4719611c107098d06107643b57105c7fc4a9b65a478a9bd5de554e814f38a17a",
              "sha256": "4719611c107098d06107643b57105c7fc4a9b65a478a9bd5de554e814f38a17a"
            },
            "big_sur": {
              "cellar": ":any",
              "url": "https://ghcr.io/v2/homebrew/core/ncdu/blobs/sha256:eb5904a48c0e57d42b9149f95f0fa6ac455d1cee24c19eb05aad4405b61da9a8",
              "sha256": "eb5904a48c0e57d42b9149f95f0fa6ac455d1cee24c19eb05aad4405b61da9a8"
            },
            "x86_64_linux": {
              "cellar": "/home/linuxbrew/.linuxbrew/Cellar",
              "url": "https://ghcr.io/v2/homebrew/core/ncdu/blobs/sha256:85a0bf75cf77e3bca24b48653e71603c798c7d8a39195406a6351c2dfbe58e26",
              "sha256": "85a0bf75cf77e3bca24b48653e71603c798c7d8a39195406a6351c2dfbe58e26"
            }
          }
        }
      },
      "exa": {
        "version": "0.10.1_1",
        "bottle": {
          "rebuild": 0,
          "root_url": "https://ghcr.io/v2/homebrew/core",
          "files": {
            "arm64_ventura": {
              "cellar": ":any",
              "url": "https://ghcr.io/v2/homebrew/core/exa/blobs/sha256:eae98c987e68e0940cb5f261b8d2fb98fe8f4f7b2d3fcf463c9b38494edeb351",
              "sha256": "eae98c987e68e0940cb5f261b8d2fb98fe8f4f7b2d3fcf463c9b38494edeb351"
            },
            "arm64_monterey": {
              "cellar": ":any",
              "url": "https://ghcr.io/v2/homebrew/core/exa/blobs/sha256:4b57d8ffd16277cd825f13b629a8e6c75e9bebce9bec3432a36c375715b37b3a",
              "sha256": "4b57d8ffd16277cd825f13b629a8e6c75e9bebce9bec3432a36c375715b37b3a"
            },
            "arm64_big_sur": {
              "cellar": ":any",
              "url": "https://ghcr.io/v2/homebrew/core/exa/blobs/sha256:7fd0284ff0a703050e5099619285060b6a0c6d687e291fd36e339a3e9182ae9a",
              "sha256": "7fd0284ff0a703050e5099619285060b6a0c6d687e291fd36e339a3e9182ae9a"
            },
            "ventura": {
              "cellar": ":any",
              "url": "https://ghcr.io/v2/homebrew/core/exa/blobs/sha256:f38dc756d78e6cf42fdac94f2763642f112128d1ac5d8717dd72ba0c56b495da",
              "sha256": "f38dc756d78e6cf42fdac94f2763642f112128d1ac5d8717dd72ba0c56b495da"
            },
            "monterey": {
              "cellar": ":any",
              "url": "https://ghcr.io/v2/homebrew/core/exa/blobs/sha256:5021c8d446048e11b4bedc2836d91ed3d11f5a29e6d88085eb43921be26c1934",
              "sha256": "5021c8d446048e11b4bedc2836d91ed3d11f5a29e6d88085eb43921be26c1934"
            },
            "big_sur": {
              "cellar": ":any",
              "url": "https://ghcr.io/v2/homebrew/core/exa/blobs/sha256:ebb304f59ba398ab7376e5dd59e7d48dd9937c01ef8d9cbb44e9a70424fce2b5",
              "sha256": "ebb304f59ba398ab7376e5dd59e7d48dd9937c01ef8d9cbb44e9a70424fce2b5"
            },
            "x86_64_linux": {
              "cellar": ":any_skip_relocation",
              "url": "https://ghcr.io/v2/homebrew/core/exa/blobs/sha256:fb7c0012074288ebd3331dd75c57c5e8957b7a8719fdc027597365f0ef379e53",
              "sha256": "fb7c0012074288ebd3331dd75c57c5e8957b7a8719fdc027597365f0ef379e53"
            }
          }
        }
      },
      "htop": {
        "version": "3.2.2",
        "bottle": {
          "rebuild": 0,
          "root_url": "https://ghcr.io/v2/homebrew/core",
          "files": {
            "arm64_ventura": {
              "cellar": ":any",
              "url": "https://ghcr.io/v2/homebrew/core/htop/blobs/sha256:87daed2cfe0d478a778b09b5f29428f05b15ff081f0e70b9a2609cf479572721",
              "sha256": "87daed2cfe0d478a778b09b5f29428f05b15ff081f0e70b9a2609cf479572721"
            },
            "arm64_monterey": {
              "cellar": ":any",
              "url": "https://ghcr.io/v2/homebrew/core/htop/blobs/sha256:76872761874d2148c1da382b3922b25916f245ef1d05fa21f95dbc1baa5ff8d4",
              "sha256": "76872761874d2148c1da382b3922b25916f245ef1d05fa21f95dbc1baa5ff8d4"
            },
            "arm64_big_sur": {
              "cellar": ":any",
              "url": "https://ghcr.io/v2/homebrew/core/htop/blobs/sha256:52bdaef69f06d6808896cd8325ff6b2be3f96643660cc5475e1d45ba850a594d",
              "sha256": "52bdaef69f06d6808896cd8325ff6b2be3f96643660cc5475e1d45ba850a594d"
            },
            "ventura": {
              "cellar": ":any",
              "url": "https://ghcr.io/v2/homebrew/core/htop/blobs/sha256:38dcedb23adca849a1e1952c4a0d3249406b625f0e2094dfc47028be7df304b2",
              "sha256": "38dcedb23adca849a1e1952c4a0d3249406b625f0e2094dfc47028be7df304b2"
            },
            "monterey": {
              "cellar": ":any",
              "url": "https://ghcr.io/v2/homebrew/core/htop/blobs/sha256:078c94ade63f91b01334d300f00489592361bdfef3600c0ca7f6ad3ce2032281",
              "sha256": "078c94ade63f91b01334d300f00489592361bdfef3600c0ca7f6ad3ce2032281"
            },
            "big_sur": {
              "cellar": ":any",
              "url": "https://ghcr.io/v2/homebrew/core/htop/blobs/sha256:7620c57b8abc846f264fb7906b96f3da07da7c6d2b43bde1579c29e04c77fc64",
              "sha256": "7620c57b8abc846f264fb7906b96f3da07da7c6d2b43bde1579c29e04c77fc64"
            },
            "x86_64_linux": {
              "cellar": ":any_skip_relocation",
              "url": "https://ghcr.io/v2/homebrew/core/htop/blobs/sha256:bb45255abf5f0cd1d886bb8ea68b26c60517771268cf18ac3cec875b572b1fc6",
              "sha256": "bb45255abf5f0cd1d886bb8ea68b26c60517771268cf18ac3cec875b572b1fc6"
            }
          }
        }
      },
      "neovim": {
        "version": "0.9.1",
        "bottle": {
          "rebuild": 0,
          "root_url": "https://ghcr.io/v2/homebrew/core",
          "files": {
            "arm64_ventura": {
              "cellar": "/opt/homebrew/Cellar",
              "url": "https://ghcr.io/v2/homebrew/core/neovim/blobs/sha256:ca207194a6ed07851c3a36293e32c37e879365f2ad2731f450455da1bec9d7a4",
              "sha256": "ca207194a6ed07851c3a36293e32c37e879365f2ad2731f450455da1bec9d7a4"
            },
            "arm64_monterey": {
              "cellar": "/opt/homebrew/Cellar",
              "url": "https://ghcr.io/v2/homebrew/core/neovim/blobs/sha256:85795a3a28506df3c7d281d9f9fe1d1f2d50c3834e7287bb17d86d80cbe67f3d",
              "sha256": "85795a3a28506df3c7d281d9f9fe1d1f2d50c3834e7287bb17d86d80cbe67f3d"
            },
            "arm64_big_sur": {
              "cellar": "/opt/homebrew/Cellar",
              "url": "https://ghcr.io/v2/homebrew/core/neovim/blobs/sha256:ec4415c980e03abb98631cf6d701bf02eb31430b696de11915900ab2daebb9e0",
              "sha256": "ec4415c980e03abb98631cf6d701bf02eb31430b696de11915900ab2daebb9e0"
            },
            "ventura": {
              "cellar": "/usr/local/Cellar",
              "url": "https://ghcr.io/v2/homebrew/core/neovim/blobs/sha256:70888c68b7413575337a00a044b17a1a06e8948b6b3fa3317a99f66ea6f03f58",
              "sha256": "70888c68b7413575337a00a044b17a1a06e8948b6b3fa3317a99f66ea6f03f58"
            },
            "monterey": {
              "cellar": "/usr/local/Cellar",
              "url": "https://ghcr.io/v2/homebrew/core/neovim/blobs/sha256:3993bd104e748db9b4f1b2994082d570ebb84ff4facaaeb66ce9d20647613a09",
              "sha256": "3993bd104e748db9b4f1b2994082d570ebb84ff4facaaeb66ce9d20647613a09"
            },
            "big_sur": {
              "cellar": "/usr/local/Cellar",
              "url": "https://ghcr.io/v2/homebrew/core/neovim/blobs/sha256:fe91386e1a0e9cddb90b13b3998f8f1e293d74f1a4a411b7b6e122771ae3ade7",
              "sha256": "fe91386e1a0e9cddb90b13b3998f8f1e293d74f1a4a411b7b6e122771ae3ade7"
            },
            "x86_64_linux": {
              "cellar": "/home/linuxbrew/.linuxbrew/Cellar",
              "url": "https://ghcr.io/v2/homebrew/core/neovim/blobs/sha256:17a892c8ecfd1206aa894663b6d68a7dea4767b4b323afd76263e9aafe3fa673",
              "sha256": "17a892c8ecfd1206aa894663b6d68a7dea4767b4b323afd76263e9aafe3fa673"
            }
          }
        }
      },
      "curl": {
        "version": "8.2.1",
        "bottle": {
          "rebuild": 0,
          "root_url": "https://ghcr.io/v2/homebrew/core",
          "files": {
            "arm64_ventura": {
              "cellar": ":any",
              "url": "https://ghcr.io/v2/homebrew/core/curl/blobs/sha256:901965403320a6aacdac96e06bc5f140db827565ba7c2cc7bc1e4337756fda2e",
              "sha256": "901965403320a6aacdac96e06bc5f140db827565ba7c2cc7bc1e4337756fda2e"
            },
            "arm64_monterey": {
              "cellar": ":any",
              "url": "https://ghcr.io/v2/homebrew/core/curl/blobs/sha256:9e710bfdd4db8210ec411f30ba62ae97be6de559dff0a88800edfb4dfa0cbf5f",
              "sha256": "9e710bfdd4db8210ec411f30ba62ae97be6de559dff0a88800edfb4dfa0cbf5f"
            },
            "arm64_big_sur": {
              "cellar": ":any",
              "url": "https://ghcr.io/v2/homebrew/core/curl/blobs/sha256:256a85d2260cc215ca3c99d5db4814cedbfee4c88ac914c84bb2244134ff9b19",
              "sha256": "256a85d2260cc215ca3c99d5db4814cedbfee4c88ac914c84bb2244134ff9b19"
            },
            "ventura": {
              "cellar": ":any",
              "url": "https://ghcr.io/v2/homebrew/core/curl/blobs/sha256:fbfa808993c8fb09118d92f9c2b6723540962c90c4d4090913bd01b6bbc858a7",
              "sha256": "fbfa808993c8fb09118d92f9c2b6723540962c90c4d4090913bd01b6bbc858a7"
            },
            "monterey": {
              "cellar": ":any",
              "url": "https://ghcr.io/v2/homebrew/core/curl/blobs/sha256:62f9f9d2476ec7c90a91fabc7b7aacdcf4f4954c60047fa957e32902f4de8587",
              "sha256": "62f9f9d2476ec7c90a91fabc7b7aacdcf4f4954c60047fa957e32902f4de8587"
            },
            "big_sur": {
              "cellar": ":any",
              "url": "https://ghcr.io/v2/homebrew/core/curl/blobs/sha256:22ec28e3af18cbbf3fa801505adcf6716ca2345529878624bc11f6638f51ee4f",
              "sha256": "22ec28e3af18cbbf3fa801505adcf6716ca2345529878624bc11f6638f51ee4f"
            },
            "x86_64_linux": {
              "cellar": ":any_skip_relocation",
              "url": "https://ghcr.io/v2/homebrew/core/curl/blobs/sha256:5adc728399b63df44ee1ba274583c2d26a4dc93d646ecaf5aefce070f2fd785e",
              "sha256": "5adc728399b63df44ee1ba274583c2d26a4dc93d646ecaf5aefce070f2fd785e"
            }
          }
        }
      },
      "wget": {
        "version": "1.21.4",
        "bottle": {
          "rebuild": 0,
          "root_url": "https://ghcr.io/v2/homebrew/core",
          "files": {
            "arm64_ventura": {
              "cellar": "/opt/homebrew/Cellar",
              "url": "https://ghcr.io/v2/homebrew/core/wget/blobs/sha256:c7b3fe54045aa9dc0d4da59adc8776a781766b9d72cf629ea6ac3d0935f2e8de",
              "sha256": "c7b3fe54045aa9dc0d4da59adc8776a781766b9d72cf629ea6ac3d0935f2e8de"
            },
            "arm64_monterey": {
              "cellar": "/opt/homebrew/Cellar",
              "url": "https://ghcr.io/v2/homebrew/core/wget/blobs/sha256:f24fa0ffc6139c1063772ce054602910f6178ae636e32c150c2e6e81a61aa10b",
              "sha256": "f24fa0ffc6139c1063772ce054602910f6178ae636e32c150c2e6e81a61aa10b"
            },
            "arm64_big_sur": {
              "cellar": "/opt/homebrew/Cellar",
              "url": "https://ghcr.io/v2/homebrew/core/wget/blobs/sha256:5d481ab27cab089083c35830f28e9e8c069708c8692e5ab35160b91f0ada90dd",
              "sha256": "5d481ab27cab089083c35830f28e9e8c069708c8692e5ab35160b91f0ada90dd"
            },
            "ventura": {
              "cellar": "/usr/local/Cellar",
              "url": "https://ghcr.io/v2/homebrew/core/wget/blobs/sha256:f1d0f59e9cd5863d4d4e29a4f0d7cf1c34da8ab4535d9b9a7b8822dbc4ce5e1b",
              "sha256": "f1d0f59e9cd5863d4d4e29a4f0d7cf1c34da8ab4535d9b9a7b8822dbc4ce5e1b"
            },
            "monterey": {
              "cellar": "/usr/local/Cellar",
              "url": "https://ghcr.io/v2/homebrew/core/wget/blobs/sha256:cf388783b9a7c9f017b3d7f176e8dbf6963f4a96d321a171a14e403b005b1bd4",
              "sha256": "cf388783b9a7c9f017b3d7f176e8dbf6963f4a96d321a171a14e403b005b1bd4"
            },
            "big_sur": {
              "cellar": "/usr/local/Cellar",
              "url": "https://ghcr.io/v2/homebrew/core/wget/blobs/sha256:5d2a224fb078f5b344070188c8b44307b52610f459104b0b08aa62d4e4016716",
              "sha256": "5d2a224fb078f5b344070188c8b44307b52610f459104b0b08aa62d4e4016716"
            },
            "x86_64_linux": {
              "cellar": "/home/linuxbrew/.linuxbrew/Cellar",
              "url": "https://ghcr.io/v2/homebrew/core/wget/blobs/sha256:f73c136ea66bb8c7dfd4c35ef3b247ec588ed622c72ad7b425dc4f7a1922dce9",
              "sha256": "f73c136ea66bb8c7dfd4c35ef3b247ec588ed622c72ad7b425dc4f7a1922dce9"
            }
          }
        }
      },
      "git": {
        "version": "2.41.0_2",
        "bottle": {
          "rebuild": 1,
          "root_url": "https://ghcr.io/v2/homebrew/core",
          "files": {
            "arm64_ventura": {
              "cellar": "/opt/homebrew/Cellar",
              "url": "https://ghcr.io/v2/homebrew/core/git/blobs/sha256:4bea6de3334de088b716f05aef9a95d185af6ed1237aebc97be1824b1d223584",
              "sha256": "4bea6de3334de088b716f05aef9a95d185af6ed1237aebc97be1824b1d223584"
            },
            "arm64_monterey": {
              "cellar": "/opt/homebrew/Cellar",
              "url": "https://ghcr.io/v2/homebrew/core/git/blobs/sha256:8ff4e3a966efd6dea5544633195122994a942027722878949ca06b263f5827e2",
              "sha256": "8ff4e3a966efd6dea5544633195122994a942027722878949ca06b263f5827e2"
            },
            "arm64_big_sur": {
              "cellar": "/opt/homebrew/Cellar",
              "url": "https://ghcr.io/v2/homebrew/core/git/blobs/sha256:03c655c2028b4a0c3cd188c80ab0efb04f9b97d7833d0bb4eadd2e31bd20bd47",
              "sha256": "03c655c2028b4a0c3cd188c80ab0efb04f9b97d7833d0bb4eadd2e31bd20bd47"
            },
            "ventura": {
              "cellar": "/usr/local/Cellar",
              "url": "https://ghcr.io/v2/homebrew/core/git/blobs/sha256:b2660c95dac23a5c7fdef545399b5eff987cc78755a29e7a8fe87afef35f177c",
              "sha256": "b2660c95dac23a5c7fdef545399b5eff987cc78755a29e7a8fe87afef35f177c"
            },
            "monterey": {
              "cellar": "/usr/local/Cellar",
              "url": "https://ghcr.io/v2/homebrew/core/git/blobs/sha256:36cb8b459b3ac11131ec58b663d6dc7209b0ea2e3b26de16fe7486308b4148e0",
              "sha256": "36cb8b459b3ac11131ec58b663d6dc7209b0ea2e3b26de16fe7486308b4148e0"
            },
            "big_sur": {
              "cellar": "/usr/local/Cellar",
              "url": "https://ghcr.io/v2/homebrew/core/git/blobs/sha256:7c446d04c50a6473bd6d0859b5a4601245363b69baffb757ef7d8ea85788e3ae",
              "sha256": "7c446d04c50a6473bd6d0859b5a4601245363b69baffb757ef7d8ea85788e3ae"
            },
            "x86_64_linux": {
              "cellar": "/home/linuxbrew/.linuxbrew/Cellar",
              "url": "https://ghcr.io/v2/homebrew/core/git/blobs/sha256:03b0f32b3507b1f9bef265af06ee501905c9087c831f4405e9474f9cf18b7a4b",
              "sha256": "03b0f32b3507b1f9bef265af06ee501905c9087c831f4405e9474f9cf18b7a4b"
            }
          }
        }
      },
      "midnight-commander": {
        "version": "4.8.30",
        "bottle": {
          "rebuild": 0,
          "root_url": "https://ghcr.io/v2/homebrew/core",
          "files": {
            "arm64_ventura": {
              "cellar": "/opt/homebrew/Cellar",
              "url": "https://ghcr.io/v2/homebrew/core/midnight-commander/blobs/sha256:6c9997cc0e3abe409b02fc2f5b834e5c805d4c01bace1b1e8930dbf5bda9974d",
              "sha256": "6c9997cc0e3abe409b02fc2f5b834e5c805d4c01bace1b1e8930dbf5bda9974d"
            },
            "arm64_monterey": {
              "cellar": "/opt/homebrew/Cellar",
              "url": "https://ghcr.io/v2/homebrew/core/midnight-commander/blobs/sha256:e87079b81d73cb205be44d7b37761d004dae2edb14d62fe3791e34a2ac27fd38",
              "sha256": "e87079b81d73cb205be44d7b37761d004dae2edb14d62fe3791e34a2ac27fd38"
            },
            "arm64_big_sur": {
              "cellar": "/opt/homebrew/Cellar",
              "url": "https://ghcr.io/v2/homebrew/core/midnight-commander/blobs/sha256:b63985ce7b866b053613f2847d2b68f3145d8807d6e9ca49bb08757676f4c627",
              "sha256": "b63985ce7b866b053613f2847d2b68f3145d8807d6e9ca49bb08757676f4c627"
            },
            "ventura": {
              "cellar": "/usr/local/Cellar",
              "url": "https://ghcr.io/v2/homebrew/core/midnight-commander/blobs/sha256:83f00b049d08761da7b730ab73cf05acfbb03c2982b17abdbd59d810c3a6aab5",
              "sha256": "83f00b049d08761da7b730ab73cf05acfbb03c2982b17abdbd59d810c3a6aab5"
            },
            "monterey": {
              "cellar": "/usr/local/Cellar",
              "url": "https://ghcr.io/v2/homebrew/core/midnight-commander/blobs/sha256:5f996907eea175493f1a42d8bf88e6eb3f0ef3d2d456b1c3480b2a8092adc8e2",
              "sha256": "5f996907eea175493f1a42d8bf88e6eb3f0ef3d2d456b1c3480b2a8092adc8e2"
            },
            "big_sur": {
              "cellar": "/usr/local/Cellar",
              "url": "https://ghcr.io/v2/homebrew/core/midnight-commander/blobs/sha256:a9fa1931be3b67b41358cb328304781010fd8d5984c5337a13749aafe8b1f2f0",
              "sha256": "a9fa1931be3b67b41358cb328304781010fd8d5984c5337a13749aafe8b1f2f0"
            },
            "x86_64_linux": {
              "cellar": "/home/linuxbrew/.linuxbrew/Cellar",
              "url": "https://ghcr.io/v2/homebrew/core/midnight-commander/blobs/sha256:f901b34e155fff6a4cb2acc7e011ec2ad88d03d3129b8db7815db432eb0a8b0a",
              "sha256": "f901b34e155fff6a4cb2acc7e011ec2ad88d03d3129b8db7815db432eb0a8b0a"
            }
          }
        }
      },
      "fzf": {
        "version": "0.42.0",
        "bottle": {
          "rebuild": 0,
          "root_url": "https://ghcr.io/v2/homebrew/core",
          "files": {
            "arm64_ventura": {
              "cellar": ":any_skip_relocation",
              "url": "https://ghcr.io/v2/homebrew/core/fzf/blobs/sha256:007ac5ffcfa1cbf733393fe35d5daf3647e07865f04d31d6c442fb8de936d219",
              "sha256": "007ac5ffcfa1cbf733393fe35d5daf3647e07865f04d31d6c442fb8de936d219"
            },
            "arm64_monterey": {
              "cellar": ":any_skip_relocation",
              "url": "https://ghcr.io/v2/homebrew/core/fzf/blobs/sha256:007ac5ffcfa1cbf733393fe35d5daf3647e07865f04d31d6c442fb8de936d219",
              "sha256": "007ac5ffcfa1cbf733393fe35d5daf3647e07865f04d31d6c442fb8de936d219"
            },
            "arm64_big_sur": {
              "cellar": ":any_skip_relocation",
              "url": "https://ghcr.io/v2/homebrew/core/fzf/blobs/sha256:007ac5ffcfa1cbf733393fe35d5daf3647e07865f04d31d6c442fb8de936d219",
              "sha256": "007ac5ffcfa1cbf733393fe35d5daf3647e07865f04d31d6c442fb8de936d219"
            },
            "ventura": {
              "cellar": ":any_skip_relocation",
              "url": "https://ghcr.io/v2/homebrew/core/fzf/blobs/sha256:5cd9be92ee93dd44fecaaec2528656d609ef968ca1529fbf01720afbff5dfdcd",
              "sha256": "5cd9be92ee93dd44fecaaec2528656d609ef968ca1529fbf01720afbff5dfdcd"
            },
            "monterey": {
              "cellar": ":any_skip_relocation",
              "url": "https://ghcr.io/v2/homebrew/core/fzf/blobs/sha256:5cd9be92ee93dd44fecaaec2528656d609ef968ca1529fbf01720afbff5dfdcd",
              "sha256": "5cd9be92ee93dd44fecaaec2528656d609ef968ca1529fbf01720afbff5dfdcd"
            },
            "big_sur": {
              "cellar": ":any_skip_relocation",
              "url": "https://ghcr.io/v2/homebrew/core/fzf/blobs/sha256:5cd9be92ee93dd44fecaaec2528656d609ef968ca1529fbf01720afbff5dfdcd",
              "sha256": "5cd9be92ee93dd44fecaaec2528656d609ef968ca1529fbf01720afbff5dfdcd"
            },
            "x86_64_linux": {
              "cellar": ":any_skip_relocation",
              "url": "https://ghcr.io/v2/homebrew/core/fzf/blobs/sha256:2c7586893fbacc5e1755ecb44dae017b283bd45a6a28017409396ea950116dd3",
              "sha256": "2c7586893fbacc5e1755ecb44dae017b283bd45a6a28017409396ea950116dd3"
            }
          }
        }
      },
      "jenv": {
        "version": "0.5.6",
        "bottle": {
          "rebuild": 0,
          "root_url": "https://ghcr.io/v2/homebrew/core",
          "files": {
            "all": {
              "cellar": ":any_skip_relocation",
              "url": "https://ghcr.io/v2/homebrew/core/jenv/blobs/sha256:24cae0d62470b6aaf396b57872ce3afa648a0f7b9124b0571a34cd4abe37a7dc",
              "sha256": "24cae0d62470b6aaf396b57872ce3afa648a0f7b9124b0571a34cd4abe37a7dc"
            }
          }
        }
      },
      "nvm": {
        "version": "0.39.4",
        "bottle": {
          "rebuild": 0,
          "root_url": "https://ghcr.io/v2/homebrew/core",
          "files": {
            "arm64_ventura": {
              "cellar": ":any_skip_relocation",
              "url": "https://ghcr.io/v2/homebrew/core/nvm/blobs/sha256:ca010bc660158fc3f27668146d1c32a9a5054a27823b6beb2dfe7af4a56a8d6a",
              "sha256": "ca010bc660158fc3f27668146d1c32a9a5054a27823b6beb2dfe7af4a56a8d6a"
            },
            "arm64_monterey": {
              "cellar": ":any_skip_relocation",
              "url": "https://ghcr.io/v2/homebrew/core/nvm/blobs/sha256:ca010bc660158fc3f27668146d1c32a9a5054a27823b6beb2dfe7af4a56a8d6a",
              "sha256": "ca010bc660158fc3f27668146d1c32a9a5054a27823b6beb2dfe7af4a56a8d6a"
            },
            "arm64_big_sur": {
              "cellar": ":any_skip_relocation",
              "url": "https://ghcr.io/v2/homebrew/core/nvm/blobs/sha256:ca010bc660158fc3f27668146d1c32a9a5054a27823b6beb2dfe7af4a56a8d6a",
              "sha256": "ca010bc660158fc3f27668146d1c32a9a5054a27823b6beb2dfe7af4a56a8d6a"
            },
            "ventura": {
              "cellar": ":any_skip_relocation",
              "url": "https://ghcr.io/v2/homebrew/core/nvm/blobs/sha256:ca010bc660158fc3f27668146d1c32a9a5054a27823b6beb2dfe7af4a56a8d6a",
              "sha256": "ca010bc660158fc3f27668146d1c32a9a5054a27823b6beb2dfe7af4a56a8d6a"
            },
            "monterey": {
              "cellar": ":any_skip_relocation",
              "url": "https://ghcr.io/v2/homebrew/core/nvm/blobs/sha256:ca010bc660158fc3f27668146d1c32a9a5054a27823b6beb2dfe7af4a56a8d6a",
              "sha256": "ca010bc660158fc3f27668146d1c32a9a5054a27823b6beb2dfe7af4a56a8d6a"
            },
            "big_sur": {
              "cellar": ":any_skip_relocation",
              "url": "https://ghcr.io/v2/homebrew/core/nvm/blobs/sha256:ca010bc660158fc3f27668146d1c32a9a5054a27823b6beb2dfe7af4a56a8d6a",
              "sha256": "ca010bc660158fc3f27668146d1c32a9a5054a27823b6beb2dfe7af4a56a8d6a"
            },
            "x86_64_linux": {
              "cellar": ":any_skip_relocation",
              "url": "https://ghcr.io/v2/homebrew/core/nvm/blobs/sha256:bce7a3f249619df50c1ab12a5a5d19487926380365ffe0571e659cd9389c3ff1",
              "sha256": "bce7a3f249619df50c1ab12a5a5d19487926380365ffe0571e659cd9389c3ff1"
            }
          }
        }
      },
      "tig": {
        "version": "2.5.8_1",
        "bottle": {
          "rebuild": 0,
          "root_url": "https://ghcr.io/v2/homebrew/core",
          "files": {
            "arm64_ventura": {
              "cellar": ":any",
              "url": "https://ghcr.io/v2/homebrew/core/tig/blobs/sha256:a433db97a4470854452df7310d11758fea48ffd75a4e1e8a9f3b3ddae789dc44",
              "sha256": "a433db97a4470854452df7310d11758fea48ffd75a4e1e8a9f3b3ddae789dc44"
            },
            "arm64_monterey": {
              "cellar": ":any",
              "url": "https://ghcr.io/v2/homebrew/core/tig/blobs/sha256:f6fde5e50a8665094751838fafa4ffab2548ffc46e6676b10ce39074429d2cb7",
              "sha256": "f6fde5e50a8665094751838fafa4ffab2548ffc46e6676b10ce39074429d2cb7"
            },
            "arm64_big_sur": {
              "cellar": ":any",
              "url": "https://ghcr.io/v2/homebrew/core/tig/blobs/sha256:6fdce8500cbc679b4ef77d545135ffe93be67a55858966a3775c06ce1d6e35ec",
              "sha256": "6fdce8500cbc679b4ef77d545135ffe93be67a55858966a3775c06ce1d6e35ec"
            },
            "ventura": {
              "cellar": ":any",
              "url": "https://ghcr.io/v2/homebrew/core/tig/blobs/sha256:e1bd241e23b1dc78017372f04959356801e23a2750b51d84e564e4ed124185e9",
              "sha256": "e1bd241e23b1dc78017372f04959356801e23a2750b51d84e564e4ed124185e9"
            },
            "monterey": {
              "cellar": ":any",
              "url": "https://ghcr.io/v2/homebrew/core/tig/blobs/sha256:768e3c0d3d8c4842bce7de7d63e7bcf9d092c8872b7a67d2c737efaf0aa81d6f",
              "sha256": "768e3c0d3d8c4842bce7de7d63e7bcf9d092c8872b7a67d2c737efaf0aa81d6f"
            },
            "big_sur": {
              "cellar": ":any",
              "url": "https://ghcr.io/v2/homebrew/core/tig/blobs/sha256:1637bc2253879491360476a653b798a9736e585ee543e3ef0f54f571bdbee7c2",
              "sha256": "1637bc2253879491360476a653b798a9736e585ee543e3ef0f54f571bdbee7c2"
            },
            "x86_64_linux": {
              "cellar": ":any_skip_relocation",
              "url": "https://ghcr.io/v2/homebrew/core/tig/blobs/sha256:962b5b01903e102b59a90b6a321b1d23d1bbda68b19d715f890a4b4a62c0421f",
              "sha256": "962b5b01903e102b59a90b6a321b1d23d1bbda68b19d715f890a4b4a62c0421f"
            }
          }
        }
      }
    },
    "cask": {
      "font-hack-nerd-font": {
        "version": "3.0.2",
        "options": {
          "full_name": "font-hack-nerd-font"
        }
      },
      "iterm2": {
        "version": "3.4.20",
        "options": {
          "full_name": "iterm2"
        }
      },
      "google-cloud-sdk": {
        "version": "442.0.0",
        "options": {
          "full_name": "google-cloud-sdk"
        }
      }
    }
  },
  "system": {
    "macos": {
      "ventura": {
        "HOMEBREW_VERSION": "4.1.5",
        "HOMEBREW_PREFIX": "/opt/homebrew",
        "Homebrew/homebrew-core": "api",
        "CLT": "14.3.1.0.1.1683849156",
        "Xcode": "14.3",
        "macOS": "13.5"
      }
    }
  }
}
